[
  {
    "normalForm": "carro",
    "id": 10008,
    "translations": "car",
    "gender": "m"
  },
  {
    "normalForm": "cerveza",
    "id": 10000,
    "translations": "beer",
    "gender": "f"
  },
  {
    "normalForm": "computadora",
    "id": 10006,
    "translations": "computer",
    "gender": "f"
  }
]