[
  {
    "normalForm": "foto",
    "id": 1200,
    "versions": [ 1201 ],
    "etymology": "Clipping of fotografía",
    "gender": "f",
    "translations": [ "photo", "photograph" ]
  },
  {
    "normalForm": "foto",
    "id": 1201,
    "versions": [ 1200 ],
    "translations": [ "photo", "photograph" ]
  }
]