[
  {
    "normalForm": "empezar",
    "id": 35,
    "translations": [ "to begin", "to start" ],
    "present": {
      "altStem": "empiez"
    },
    "preterite": {
      "singFirst": "empecé"
    }
  },
  {
    "normalForm": "encontrar",
    "id": 25,
    "translations": [ "to find", "to encounter" ],
    "present": {
      "altStem": "encuentr"
    }
  },
  {
    "normalForm": "escribir",
    "id": 8,
    "translations": "to write"
  },
  {
    "normalForm": "estudiar",
    "id": 7,
    "translations": "to study"
  },
  {
    "normalForm": "estar",
    "id": 6,
    "translations": "to be:2",
    "present": {
      "singFirst": "estoy",
      "singThird": "está",
      "plurThird": "están"
    },
    "preterite": {
      "singFirst": "estuve",
      "singSecond": "estuviste",
      "singThird": "estuvo",
      "plurFirst": "estuvimos",
      "plurSecond": "estuvisteis",
      "plurThird": "estuvieron"
    }
  }
]